unidad_1_q – Curso de posgrado: Gráficos con ggplot2 2026
…
# seleccionar filas 1 a 3
datos_peces[1:3,]

# A tibble: 3 × 10
     id especie           sitio sexo  temporada longitud_cm peso_g temperatura_C
  <dbl> <chr>             <chr> <chr> <chr>           <dbl>  <dbl>         <dbl>
1     1 Jenynsia multide… Lagu… F     Invierno          5.6   2.33          17.7
2     2 Odontesthes bona… Lagu… M     Verano           31.4 333.            21.7
3     3 Odontesthes bona… Lagu… M     Invierno         30.6 268.            15.7
# ℹ 2 more variables: transparencia_cm <dbl>, cortisol_ugdL <dbl>

# seleccionar columnas 1 a 3
datos_peces[,1:3]

# A tibble: 126 × 3
      id especie                 sitio         
   <dbl> <chr>                   <chr>         
 1     1 Jenynsia multidentata   Laguna Central
 2     2 Odontesthes bonariensis Laguna Central
 3     3 Odontesthes bonariensis Laguna Norte  
 4     4 Odontesthes bonariensis Laguna Central
 5     5 Odontesthes bonariensis Laguna Sur    
 6     6 Odontesthes bonariensis Laguna Norte  
 7     7 Cichlasoma dimerus      Laguna Norte  
 8     8 Odontesthes bonariensis Laguna Central
 9     9 Odontesthes bonariensis Laguna Sur    
10    10 Odontesthes bonariensis Laguna Central
# ℹ 116 more rows

datos_peces %>% select(1:3)

# A tibble: 126 × 3
      id especie                 sitio         
   <dbl> <chr>                   <chr>         
 1     1 Jenynsia multidentata   Laguna Central
 2     2 Odontesthes bonariensis Laguna Central
 3     3 Odontesthes bonariensis Laguna Norte  
 4     4 Odontesthes bonariensis Laguna Central
 5     5 Odontesthes bonariensis Laguna Sur    
 6     6 Odontesthes bonariensis Laguna Norte  
 7     7 Cichlasoma dimerus      Laguna Norte  
 8     8 Odontesthes bonariensis Laguna Central
 9     9 Odontesthes bonariensis Laguna Sur    
10    10 Odontesthes bonariensis Laguna Central
# ℹ 116 more rows

# seleccionar por nombre de la columna
datos_peces %>% select(sitio, especie)

# A tibble: 126 × 2
   sitio          especie                
   <chr>          <chr>                  
 1 Laguna Central Jenynsia multidentata  
 2 Laguna Central Odontesthes bonariensis
 3 Laguna Norte   Odontesthes bonariensis
 4 Laguna Central Odontesthes bonariensis
 5 Laguna Sur     Odontesthes bonariensis
 6 Laguna Norte   Odontesthes bonariensis
 7 Laguna Norte   Cichlasoma dimerus     
 8 Laguna Central Odontesthes bonariensis
 9 Laguna Sur     Odontesthes bonariensis
10 Laguna Central Odontesthes bonariensis
# ℹ 116 more rows
…
