unidad_5_q – Curso de posgrado: Gráficos con ggplot2 2026
…
filter: filtramos por los años que están en el objeto, y eliminamos World.

mutate + factor : permite reorganizar los niveles del factor como queramos. Luego se graficarán en ese orden.

group_by : criterio de agrupamiento para los cálculos.

arrange : los datos se ordenarán por año y por la producción.

2° mutate : calcula el porcentaje de producción del total y luego los acumulados parciales donde irán las etiquetas en cada gráfico (por eso los llamo label). El cálculo lo hace siguiendo el criterio de agrupamiento de group_by .

Repasemos como quedó la base de datos:

soja_apilado

# A tibble: 36 × 8
   Area       Year     Sup Production Yield percent_Prod label_y label_y_perc
   <fct>     <dbl>   <dbl>      <dbl> <dbl>        <dbl>   <dbl>        <dbl>
 1 Brazil     1970  1.5        1.51   1.00        3.95      1.51         3.95
 2 USA        1970 13         30.7    2.36       80.4      32.2         84.4 
 3 Argentina  1970  0.0260     0.0268 1.03        0.0702   32.2         84.4 
 4 China      1970  8.6        5.7    0.663      14.9      37.9         99.4 
 5 India      1970  0.016      0.009  0.563       0.0236   37.9         99.4 
 6 Paraguay   1970  0.129      0.238  1.19        0.623    38.2        100   
 7 Brazil     1980  8.8       15.1    1.72       19.4      15.1         19.4 
 8 USA        1980 27.9       48.8    1.75       62.7      63.9         82.1 
 9 Argentina  1980  2.03       3.5    1.72        4.50     67.4         86.6 
10 China      1980  7.9        7.9    1          10.2      75.3         96.8 
# ℹ 26 more rows
…
Supongamos ahora que queremos crear una columna que contenga en sus filas el tipo de parámetro que estamos midiendo (superficie, producción o rendimiento) y otra que contenga el valor del parámetro correspondiente. La estructura básica de pivot_longer es la siguiente:

pivot_longer(c(`variable_1`, `variable_2`, ... , `variable_n`), # variables a combinar
       names_to = "Variables", # el titulo de la nueva columna con las variables
       values_to = "Valor") # el título de la nueva columna con el valor numérico

Notar que el nombre de las variables se debe introducir entre tildes invertidas (`). En nuestro caso de ejemplo será:

soja_paises %>% pivot_longer(c(`Sup`, `Yield`, `Production`),
       names_to =  "Variables",
       values_to = "Valor")

# A tibble: 1,323 × 4
   Area   Year Variables  Valor
   <chr> <dbl> <chr>      <dbl>
 1 World  1961 Sup        23.8 
 2 World  1961 Yield       1.13
 3 World  1961 Production 26.9 
 4 World  1962 Sup        23.8 
 5 World  1962 Yield       1.14
 6 World  1962 Production 27.1 
 7 World  1963 Sup        24.4 
 8 World  1963 Yield       1.16
 9 World  1963 Production 28.2 
10 World  1964 Sup        25.7 
# ℹ 1,313 more rows
…
