Gráficos para publicaciones en R con énfasis en ggplot2
…
# seleccionar filas 1 a 3
metales[1:3,]

# A tibble: 3 × 12
   Pote GT          CO2 ET    Organo    PS    Mn    Cu    Zn    Cd    Pb  SPAD
  <dbl> <chr>     <dbl> <chr> <chr>  <dbl> <dbl> <dbl> <dbl> <dbl> <dbl> <dbl>
1     1 ES Mentor   400 No    Hoja    4.58  53.9 10.3  103.  1.30   7.22  29.5
2     2 ES Mentor   400 No    Hoja    3.61  51.1  7.36 149.  1.09   2.75  21.5
3     3 ES Mentor   400 No    Hoja    4.27  41.7  6.90  96.9 0.956  2.53  24.7

# seleccionar columnas 1 a 3
metales[,1:3]

# A tibble: 142 × 3
    Pote GT          CO2
   <dbl> <chr>     <dbl>
 1     1 ES Mentor   400
 2     2 ES Mentor   400
 3     3 ES Mentor   400
 4     4 ES Mentor   400
 5     5 ES Mentor   400
 6     6 ES Mentor   400
 7     7 Sigalia     400
 8     8 Sigalia     400
 9     9 Sigalia     400
10    10 Sigalia     400
# ℹ 132 more rows

metales %>% select(1:3)

# A tibble: 142 × 3
    Pote GT          CO2
   <dbl> <chr>     <dbl>
 1     1 ES Mentor   400
 2     2 ES Mentor   400
 3     3 ES Mentor   400
 4     4 ES Mentor   400
 5     5 ES Mentor   400
 6     6 ES Mentor   400
 7     7 Sigalia     400
 8     8 Sigalia     400
 9     9 Sigalia     400
10    10 Sigalia     400
# ℹ 132 more rows

# seleccionar por nombre de la columna
metales %>% select(GT,CO2,Pb)

# A tibble: 142 × 3
   GT          CO2    Pb
   <chr>     <dbl> <dbl>
 1 ES Mentor   400  7.22
 2 ES Mentor   400  2.75
 3 ES Mentor   400  2.53
 4 ES Mentor   400  3.05
 5 ES Mentor   400  3.21
 6 ES Mentor   400  3.69
 7 Sigalia     400  4.93
 8 Sigalia     400  6.89
 9 Sigalia     400  6.45
10 Sigalia     400  4.06
# ℹ 132 more rows
…
También podemos cambiar los niveles de una factor mutate, mediante la siguiente estructura:

... %>%
  mutate(nombre_factor = fct_recode(nombre_factor,
                        "nombre nuevo" = "nombre viejo"))

Y podemos incluir una línea para cada nivel que queramos modificar. Por ejemplo:

ALIM %>% select(CO2, ET, PS) %>%
  mutate(ET = fct_recode(ET,
                         "Control"  = "No",
                         "Estrés térmico" = "Si")) 

# A tibble: 47 × 3
     CO2 ET                PS
   <dbl> <fct>          <dbl>
 1   400 Control        10.7 
 2   400 Control         8.29
 3   400 Control         5.86
 4   400 Estrés térmico  7.46
 5   400 Estrés térmico  9.43
 6   400 Estrés térmico  8.15
 7   550 Control        11.8 
 8   550 Control        12.3 
 9   550 Control         9.45
10   550 Estrés térmico  8.45
# ℹ 37 more rows
…
Supongamos ahora que queremos crear una columna que contenga en sus filas el tipo de parámetro que estamos midiendo (superficie, producción o rendimiento) y otra que contenga el valor del parámetro correspondiente. La estructura básica de pivot_longer es la siguiente:

pivot_longer(c(`variable_1`, `variable_2`, ... , `variable_n`), # variables a combinar
       names_to = "Variables", # el titulo de la nueva columna con las variables
       values_to = "Valor") # el título de la nueva columna con el valor numérico

Notar que el nombre de las variables se debe introducir entre tildes invertidas (`). En nuestro caso de ejemplo será:

soja %>% pivot_longer(c(`Sup`, `Yield`, `Production`),
       names_to =  "Variables",
       values_to = "Valor")

# A tibble: 378 × 5
   Area      Element         Year Variables  Valor
   <chr>     <chr>          <dbl> <chr>      <dbl>
 1 Argentina Area harvested  1961 Sup          980
 2 Argentina Area harvested  1961 Yield        977
 3 Argentina Area harvested  1961 Production   957
 4 Argentina Area harvested  1962 Sup         9649
 5 Argentina Area harvested  1962 Yield       1163
 6 Argentina Area harvested  1962 Production 11220
 7 Argentina Area harvested  1963 Sup        19302
 8 Argentina Area harvested  1963 Yield        980
 9 Argentina Area harvested  1963 Production 18920
10 Argentina Area harvested  1964 Sup        12220
# ℹ 368 more rows
…
